{
    "version": "3.0.0",
    "vulnerabilities": [
        {
            "id": "c9999c34f14583d62bb8c9ed8da9a0f663e6f8f5b2d5569c6cbb95ae4640e9e8",
            "category": "sast",
            "name": "Use of unsafe cookie serialization strategy `:marshal` might lead to remote code execution",
            "message": "Use of unsafe cookie serialization strategy `:marshal` might lead to remote code execution",
            "cve": "d882f63ce96c28fb6c6e0982f2a171460e4b933bfd9b9a5421dca21eef3f76da",
            "severity": "Medium",
            "confidence": "Medium",
            "scanner": {
                "id": "brakeman",
                "name": "Brakeman"
            },
            "location": {
                "file": "config/initializers/cookies_serializer.rb",
                "start_line": 5
            },
            "identifiers": [
                {
                    "type": "brakeman_warning_code",
                    "name": "Brakeman Warning Code 110",
                    "value": "110",
                    "url": "https://brakemanscanner.org/docs/warning_types/unsafe_deserialization"
                }
            ]
        },
        {
            "id": "a73ebb02d39ace2beaa33511b342275649e0034fafdfc5c6cbedc39a666f5865",
            "category": "sast",
            "name": "Possible unprotected redirect",
            "message": "Possible unprotected redirect",
            "cve": "373414e0effe673bb93d1d8994f3e511ff089ce79337a16577e087556e9ae3cd",
            "severity": "Low",
            "confidence": "Low",
            "scanner": {
                "id": "brakeman",
                "name": "Brakeman"
            },
            "location": {
                "file": "app/controllers/groups_controller.rb",
                "start_line": 6,
                "class": "GroupsController",
                "method": "new_group"
            },
            "identifiers": [
                {
                    "type": "brakeman_warning_code",
                    "name": "Brakeman Warning Code 18",
                    "value": "18",
                    "url": "https://brakemanscanner.org/docs/warning_types/redirect/"
                }
            ],
            "tracking": {
                "type": "source",
                "items": [
                    {
                        "file": "app/controllers/groups_controller.rb",
                        "line_start": 6,
                        "line_end": 6,
                        "signatures": [
                            {
                                "algorithm": "scope_offset",
                                "value": "app/controllers/groups_controller.rb|GroupsController[0]|new_group[0]:4"
                            }
                        ]
                    }
                ]
            }
        }
    ],
    "remediations": [],
    "scan": {
        "scanner": {
            "id": "brakeman",
            "name": "Brakeman",
            "url": "https://brakemanscanner.org",
            "vendor": {
                "name": "GitLab"
            },
            "version": "5.0.0"
        },
        "type": "sast",
        "start_time": "2021-03-10T12:37:01",
        "end_time": "2021-03-10T12:37:02",
        "status": "success"
    }
}
